{
	"_id":"7ytg5432k",
	"name":"Full Stack Web Dev in JavaScript",
	"description":"Learn how to do web dev using JS",
	"price":3000,
	"isActive": true,
	"slots":10,
	"datetimeAdded":"2023-07-25T15:00:00.00Z"
}
